<?xml version="1.0" standalone="no"?>
<!DOCTYPE svg PUBLIC "-//W3C//DTD SVG 1.1//EN" "http://www.w3.org/Graphics/SVG/1.1/DTD/svg11.dtd" >
<!--
2016-11-7: Created.
-->
<svg xmlns="http://www.w3.org/2000/svg">
<metadata>
Created by FontForge 20120731 at Mon Nov  7 13:15:58 2016
 By Apache
Created by Apache with FontForge 2.0 (http://fontforge.sf.net)
</metadata>
<defs>
<font id="Flaticon" horiz-adv-x="512" >
  <font-face 
    font-family="Flaticon"
    font-weight="500"
    font-stretch="normal"
    units-per-em="512"
    panose-1="2 0 6 3 0 0 0 0 0 0"
    ascent="448"
    descent="-64"
    bbox="-0.000543952 -64 512 448.002"
    underline-thickness="25.6"
    underline-position="-51.2"
    unicode-range="U+0020-F10B"
  />
    <missing-glyph />
    <glyph glyph-name="space" unicode=" " horiz-adv-x="200" 
 />
    <glyph glyph-name="uniF103" unicode="&#xf103;" 
d="M510.971 2.32715c2.41602 -8.69824 0.483398 -17.3965 -4.83203 -24.1621c-4.83301 -6.76465 -13.0479 -10.6309 -21.2627 -10.6309h-65.2383h-16.4307h-289.945c-8.21582 0 -15.9473 3.86621 -21.2627 10.6309c-5.31641 6.76562 -6.76562 15.4639 -4.83301 23.6797
l20.2969 71.0361c0.96582 3.38281 1.93262 6.76562 3.38184 10.1484h-51.2236c-6.76465 0 -12.5645 2.89941 -16.4297 8.21484c-4.34961 5.31641 -5.79883 12.0811 -3.86621 18.3633l12.5645 45.4248c0.483398 1.93359 1.44922 3.86621 1.93262 5.79883h-37.21
c-5.31543 0 -10.6309 2.41699 -13.5303 6.76562c-2.89941 3.86621 -3.86621 9.18164 -2.41602 14.0146l7.73145 28.0273c9.18164 29.4785 28.9951 38.1768 51.2236 43.9756c-6.76465 11.5977 -11.1143 26.0947 -11.1143 41.5586c0 27.0615 21.7461 48.8076 48.8076 48.3242
c8.21484 0 15.4639 -1.44922 22.7119 -5.31543c0.966797 -0.483398 1.93359 -0.966797 2.90039 -1.93262c13.0469 20.7793 36.2432 34.793 62.3379 34.793c8.69824 0 17.3965 -1.44922 25.6123 -4.34863c19.3291 29.9609 53.1562 49.7734 91.333 49.7734
c60.4053 0 109.213 -48.8076 109.213 -109.213c0 -81.1846 -51.2236 -152.222 -109.213 -152.222c-58.9561 0 -108.73 69.5869 -108.73 152.222c0 14.9805 2.89941 28.9951 8.21582 42.042c-5.31641 1.4502 -10.6318 2.41699 -16.4307 2.41699
c-29.9609 0 -54.6064 -24.6455 -54.6064 -54.6064c0 -33.8271 15.9473 -66.6875 38.1758 -78.2861c4.83301 -2.41602 6.76562 -8.21484 4.34961 -13.0469c-1.93262 -3.38281 -5.31543 -5.31641 -8.69824 -5.31641c-1.4502 0 -2.89941 0 -4.34961 0.966797
c-3.86523 1.93262 -7.73145 4.34961 -11.1143 7.24902c-0.966797 -0.966797 -2.41602 -1.93359 -4.34961 -2.41699c-41.5586 -10.6309 -62.8213 -21.2627 -73.9355 -56.5391l-12.5645 -44.9414c0 -0.966797 0.483398 -1.4502 0.483398 -1.93359
c0.482422 -0.482422 0.482422 -0.482422 0.96582 -0.482422h60.8887c15.9473 25.1279 41.0762 43.9746 70.5537 51.707l5.79883 1.44922c8.69824 2.41602 18.3633 -0.483398 24.6455 -7.73145c21.2627 -24.1621 48.3242 -26.0957 76.8359 -26.0957
s55.5732 1.93359 76.8359 26.0957c6.28223 7.24805 15.9463 10.1475 24.6445 7.73145l5.7998 -0.966797c39.1426 -10.1475 70.0703 -39.626 82.6338 -77.8018c0.966797 -0.966797 1.93359 -2.41602 2.41699 -3.86621zM222.475 347.847
c-4.34961 -9.18164 -7.24902 -18.8467 -8.69824 -28.9951c51.707 -10.1475 97.1318 1.4502 110.662 28.9951c0.483398 0.483398 0.483398 0.966797 0.966797 1.44922c0.483398 1.93359 1.44922 3.38281 3.38281 4.83301c4.34863 3.38281 10.1475 2.41602 13.5303 -1.93359
c10.6318 -14.4971 28.5117 -21.2627 45.4248 -17.8799c-11.5977 36.2432 -45.4248 62.8223 -85.5332 62.8223c-33.3447 0 -62.3389 -18.3633 -77.3193 -45.4248c-0.483398 -0.483398 -0.483398 -1.4502 -0.966797 -1.93359
c-0.483398 -0.96582 -0.96582 -1.44922 -1.44922 -1.93262zM249.536 296.14c-11.5977 0 -24.1621 0.966797 -36.7266 3.38281c3.38281 -67.6543 43.4922 -125.16 89.4004 -125.16c47.8408 0 89.8828 62.3379 89.8828 133.375c0 2.89941 0 5.31543 -0.483398 8.21484
c-3.86621 -0.96582 -8.21484 -1.44922 -12.0811 -1.44922c-15.9473 0 -30.9277 5.79883 -43.0088 16.4307c-16.4297 -22.7129 -48.3242 -34.7939 -86.9834 -34.7939zM20.4785 180.161h43.0088c16.9131 26.5781 42.5254 36.2432 71.5205 43.4922
c-14.498 18.8467 -23.6797 45.9082 -23.6797 73.4531c0 8.21484 1.4502 15.9463 3.86621 23.1953c-1.4502 0 -2.41602 0.483398 -3.86621 0.966797c-4.34863 2.41602 -8.69824 3.38281 -14.0137 3.38281c-16.4307 0 -29.4775 -13.0479 -29.4775 -29.4785
c0 -19.3291 9.18164 -38.1758 21.7451 -44.9414c4.34961 -2.41602 6.28223 -8.21484 3.86621 -13.0479c-1.93262 -3.38281 -5.31543 -5.31543 -8.69824 -5.31543c-1.4502 0 -2.89941 0 -4.34961 0.966797c-2.89941 1.44922 -4.83203 2.89941 -7.24805 4.83203
c-0.966797 -0.966797 -2.41602 -1.44922 -3.86621 -1.93262c-24.1621 -5.79883 -36.2432 -11.5977 -42.042 -31.4111zM491.157 -10.2363c1.4502 1.93262 1.93359 4.83203 1.4502 7.24805l-10.6318 36.7266c-0.96582 0.966797 -1.44922 1.93359 -1.93262 3.38281
l-8.69824 29.9609c-9.66504 33.3438 -36.7266 59.4395 -70.0703 68.1377l-5.79883 1.44922c-2.41602 0.483398 -4.34961 -0.483398 -5.79883 -1.93262c-26.5781 -30.4443 -59.4395 -32.8604 -91.333 -32.8604c-31.8945 0 -64.7549 2.41602 -91.333 32.8604
c-1.4502 1.44922 -3.86621 2.41602 -5.31543 1.93262l-5.7998 -1.44922c-33.8262 -8.69824 -60.4053 -34.7939 -70.0693 -68.1377l-20.2969 -70.5537c-0.483398 -1.93262 0 -4.83203 1.4502 -6.76465c0.96582 -0.966797 2.89941 -2.89941 6.28223 -2.89941h289.945h16.4307
h65.2383c3.38184 0 5.31543 1.93262 6.28125 2.89941z" />
    <glyph glyph-name="uniF10A" unicode="&#xf10a;" 
d="M512 350.738c-14.0459 -21.0518 -31.8975 -39.5439 -52.5332 -54.2627l0.351562 -13.5977c0 -138.789 -105.612 -298.823 -298.823 -298.823c-59.3174 0 -114.507 17.4043 -160.994 47.2549c8.22168 -0.927734 16.5732 -1.43945 25.0508 -1.43945
c49.207 0 94.5107 16.7324 130.439 44.8877c-45.9434 0.832031 -84.7207 31.1943 -98.0938 72.9463c6.43066 -1.2793 12.9902 -1.95117 19.7725 -1.95117c9.59863 0 18.876 1.31152 27.6748 3.67871c-48.0225 9.66309 -84.2402 52.1191 -84.2402 102.989v1.31152
c14.1729 -7.87012 30.3623 -12.6055 47.5752 -13.1807c-28.1553 18.8115 -46.7119 50.9648 -46.7119 87.4072c0 19.2607 5.15137 37.3047 14.2061 52.79c51.7979 -63.541 129.191 -105.356 216.471 -109.74c-1.79199 7.67871 -2.7207 15.71 -2.7207 23.9316
c0 57.9736 47.0312 105.004 105.036 105.004c30.2354 0 57.4941 -12.7334 76.6582 -33.1777c23.9316 4.73535 46.3916 13.4707 66.7402 25.5c-7.87012 -24.4756 -24.4746 -45.0791 -46.167 -58.0693c21.2441 2.52832 41.4639 8.19141 60.3086 16.541z" />
    <glyph glyph-name="uniF108" unicode="&#xf108;" 
d="M505.241 445.5c3.33691 -3.33691 3.33691 -8.73047 0 -12.0664l-31.6338 -31.6348v-207.128l-243.217 -249.787c-5.93066 -5.92285 -13.6709 -8.88379 -21.4111 -8.88379c-7.70605 0 -15.3945 2.93555 -21.2568 8.79785l-174.649 174.649
c-5.68359 5.68359 -8.81543 13.2529 -8.81543 21.291c0 8.03906 3.13184 15.6084 8.81543 21.292l249.779 251.835h198.688l31.6338 31.6348c3.33691 3.33594 8.72949 3.33594 12.0664 0zM456.54 201.601v183.131l-41.2432 -41.2432
c4.47168 -6.75 7.1084 -14.8135 7.1084 -23.4922c0 -23.5273 -19.1406 -42.668 -42.668 -42.668s-42.668 19.1406 -42.668 42.668c0 23.5264 19.1406 42.668 42.668 42.668c8.67871 0 16.7432 -2.63672 23.4932 -7.1084l41.2432 41.2422h-174.504l-244.804 -246.809
c-5.1123 -5.1123 -5.1123 -13.3896 -0.0263672 -18.4756l174.649 -174.649c5.08594 -5.08594 13.3633 -5.08594 18.4492 0zM405.338 319.996c0 3.94238 -0.963867 7.62891 -2.56836 10.9648l-16.999 -16.998c-1.66406 -1.66406 -3.84863 -2.50098 -6.0332 -2.50098
s-4.36914 0.836914 -6.0332 2.50098c-3.33691 3.33594 -3.33691 8.72949 0 12.0664l16.999 16.999c-3.33691 1.5957 -7.02344 2.56836 -10.9658 2.56836c-14.1143 0 -25.6006 -11.4863 -25.6006 -25.6006c0 -14.1152 11.4863 -25.6016 25.6006 -25.6016
c14.1152 0 25.6006 11.4863 25.6006 25.6016zM290.562 111.102c3.32812 3.33594 8.7207 3.33594 12.0576 0c3.33691 -3.33691 3.33691 -8.73047 0 -12.0664l-90.5156 -90.5078c-1.66406 -1.66406 -3.84863 -2.5 -6.03418 -2.5c-2.18457 0 -4.36914 0.835938 -6.0332 2.5
c-3.33594 3.33691 -3.33594 8.72949 0 12.0664zM320.685 141.311c3.15723 3.15723 9.0459 3.15723 12.1182 0c1.53613 -1.54492 2.47461 -3.75488 2.47461 -6.05859c0 -2.31348 -0.938477 -4.44629 -2.47461 -6.05957
c-1.54492 -1.54395 -3.75488 -2.47461 -6.05859 -2.47461c-2.21875 0 -4.44629 0.930664 -6.05957 2.47461c-1.54395 1.61328 -2.47461 3.83203 -2.47461 6.05957c0 2.21777 0.930664 4.43652 2.47461 6.05859zM248.319 213.692l-90.5156 -90.5156
c-1.66406 -1.66406 -3.84863 -2.50098 -6.0332 -2.50098s-4.36914 0.836914 -6.0332 2.50098c-3.33691 3.33594 -3.33691 8.72949 0 12.0664l90.5156 90.5156c3.33691 3.33691 8.73047 3.33691 12.0664 0c3.33691 -3.33691 3.33691 -8.72949 0 -12.0664zM218.145 111.102
c-3.32812 3.33594 -3.32812 8.73828 0 12.0664l60.3418 60.3408c3.33594 3.33691 8.72949 3.33691 12.0664 0c3.33691 -3.33594 3.33691 -8.72949 0 -12.0664l-60.3418 -60.3408c-1.66406 -1.66406 -3.84863 -2.50098 -6.0332 -2.50098s-4.36914 0.836914 -6.0332 2.50098z
M169.87 74.9014c3.33691 3.33691 8.73828 3.33691 12.0664 0c3.33691 -3.32812 3.33691 -8.72949 0 -12.0664l-12.0664 -12.0752c-1.66406 -1.66406 -3.84863 -2.5 -6.0332 -2.5s-4.36914 0.835938 -6.0332 2.5c-3.33691 3.32812 -3.33691 8.73047 0 12.0664z
M175.903 237.825c3.33691 -3.33594 3.33691 -8.72949 0 -12.0664l-90.5078 -90.5078c-1.66406 -1.66406 -3.84863 -2.5 -6.0332 -2.5s-4.36914 0.835938 -6.0332 2.5c-3.33594 3.33691 -3.33594 8.73047 0 12.0674l90.5078 90.5068
c3.33691 3.33691 8.72949 3.33691 12.0664 0zM200.011 253.434c-2.20996 0 -4.42871 0.947266 -6.05859 2.47461c-1.53613 1.62109 -2.47461 3.83984 -2.47461 6.05859c0 2.30469 0.947266 4.4375 2.56836 6.05957c3.06348 3.15723 8.875 3.15723 12.0234 0
c1.54492 -1.53613 2.47559 -3.75488 2.47559 -6.05957c0 -2.21875 -0.930664 -4.4375 -2.47559 -6.05859c-1.6123 -1.53613 -3.74609 -2.47461 -6.05859 -2.47461zM121.596 111.102c3.15723 3.15723 8.875 3.15723 12.0322 0
c1.62109 -1.62207 2.56055 -3.75488 2.56055 -6.05957c0 -2.22656 -0.939453 -4.36035 -2.47559 -5.97266c-1.62109 -1.62988 -3.83984 -2.56055 -6.05859 -2.56055c-2.3125 0 -4.44629 0.938477 -6.05859 2.56055c-1.62109 1.52734 -2.47461 3.74609 -2.47461 5.97266
c0 2.30469 0.853516 4.51465 2.47461 6.05957zM206.069 86.9424c-1.6123 -1.53613 -3.74609 -2.47461 -6.05859 -2.47461c-2.21875 0 -4.4375 0.930664 -6.05859 2.47461c-1.53613 1.61328 -2.47461 3.84082 -2.47461 6.05957c0 2.21777 0.938477 4.4375 2.47461 6.05859
c3.15723 3.15723 8.96875 3.15723 12.1172 0c1.62207 -1.62109 2.47559 -3.84082 2.47559 -6.05859c0 -2.21875 -0.853516 -4.44629 -2.47559 -6.05957z" />
    <glyph glyph-name="uniF100" unicode="&#xf100;" 
d="M352.844 191.326c4.86914 0 8.80469 -3.93555 8.80469 -8.80371c0 -4.86914 -3.94531 -8.80469 -8.80469 -8.80469h-62.8809c-3.93555 -15.1436 -17.6084 -26.4131 -33.9668 -26.4131c-19.4229 0 -35.2178 15.7949 -35.2178 35.2178
c0 16.3672 11.2695 30.0312 26.4131 33.9668v89.2939c0 4.86914 3.94434 8.80469 8.80469 8.80469c4.85938 0 8.80371 -3.93555 8.80371 -8.80469v-89.2939c12.3174 -3.20508 21.958 -12.8457 25.1631 -25.1631h62.8809zM255.996 164.913
c9.71094 0 17.6084 7.89746 17.6084 17.6094c0 9.71094 -7.89746 17.6084 -17.6084 17.6084c-9.71191 0 -17.6094 -7.89746 -17.6094 -17.6084c0 -9.71191 7.89746 -17.6094 17.6094 -17.6094zM441.873 362.034l-14.7646 -14.7559
c41.1953 -42.7627 66.6045 -100.837 66.6045 -164.756c0 -87.1455 -47.1641 -163.444 -117.282 -204.834l26.6592 -26.6592c3.44238 -3.44238 3.44238 -9.00684 0 -12.4492c-1.7168 -1.7168 -3.9707 -2.58008 -6.22461 -2.58008s-4.50781 0.863281 -6.22461 2.58008
l-30.375 30.375c-31.502 -15.4434 -66.8867 -24.1504 -104.27 -24.1504c-37.3838 0 -72.7686 8.70703 -104.271 24.1504l-30.375 -30.375c-1.7168 -1.7168 -3.9707 -2.58008 -6.22461 -2.58008s-4.50781 0.863281 -6.22461 2.58008
c-3.44238 3.44238 -3.44238 9.00684 0 12.4492l26.6592 26.6592c-70.1182 41.3896 -117.282 117.688 -117.282 204.834c0 63.9189 25.4092 121.993 66.6045 164.756l-14.7559 14.7559l-36.0625 -36.0625c-1.64648 -1.65527 -3.8916 -2.58008 -6.22461 -2.58008
c-2.33398 0 -4.57031 0.924805 -6.22559 2.58008c-27.8828 27.874 -27.8828 73.2432 0 101.118c27.8838 27.874 73.2441 27.874 101.118 0c1.65527 -1.64648 2.58008 -3.88281 2.58008 -6.22461s-0.924805 -4.56934 -2.58008 -6.22461l-40.1562 -40.1572l14.9678 -14.958
c42.084 37.7178 97.6309 60.7148 158.461 60.7148c60.8291 0 116.376 -22.9971 158.46 -60.7148l14.959 14.958l-40.1562 40.1572c-1.65527 1.64648 -2.58008 3.88281 -2.58008 6.22461s0.924805 4.56934 2.58008 6.22461c27.874 27.874 73.2344 27.874 101.118 0
c27.8828 -27.875 27.8828 -73.2441 0 -101.118c-1.64648 -1.65527 -3.8916 -2.58008 -6.22559 -2.58008c-2.33301 0 -4.56934 0.924805 -6.22461 2.58008zM477.927 414.641c-18.9023 18.9023 -48.4414 20.7959 -69.4834 5.71387l75.1982 -75.207
c15.0811 21.0508 13.1797 50.5986 -5.71484 69.4932zM28.3496 345.156l75.1982 75.1982c-21.042 15.0732 -50.5898 13.1797 -69.4834 -5.71387c-18.8945 -18.8945 -20.7959 -48.4424 -5.71484 -69.4844zM255.996 -37.5869c121.376 0 220.108 98.7412 220.108 220.109
s-98.7412 220.108 -220.108 220.108c-121.368 0 -220.109 -98.7402 -220.109 -220.108s98.7412 -220.109 220.109 -220.109zM255.996 359.675c-4.86035 0 -8.80469 3.94434 -8.80469 8.80371v8.80469c0 4.86914 3.94434 8.80469 8.80469 8.80469
c4.85938 0 8.80371 -3.93555 8.80371 -8.80469v-8.80469c0 -4.86816 -3.94434 -8.80371 -8.80371 -8.80371zM255.996 7.5c4.86816 0 8.80371 -3.93555 8.80371 -8.80371v-8.80469c0 -4.86914 -3.94434 -8.80469 -8.80371 -8.80469
c-4.86035 0 -8.80469 3.93555 -8.80469 8.80469v8.80469c0 4.86816 3.94434 8.80371 8.80469 8.80371zM440.887 174.783c-4.85938 0 -8.80371 3.93555 -8.80371 8.80469c0 4.86816 3.94434 8.80371 8.80371 8.80371h8.80469c4.86035 0 8.80469 -3.93555 8.80469 -8.80371
c0 -4.86914 -3.94434 -8.80469 -8.80469 -8.80469h-8.80469zM71.1045 192.392c4.86816 0 8.80371 -3.93555 8.80371 -8.80371c0 -4.86914 -3.94434 -8.80469 -8.80371 -8.80469h-8.80469c-4.86035 0 -8.80469 3.93555 -8.80469 8.80469
c0 4.86816 3.94434 8.80371 8.80469 8.80371h8.80469zM386.74 326.781c3.43359 3.44238 9.00684 3.44238 12.4492 0s3.44238 -9.00684 0 -12.4492l-6.22461 -6.22461c-1.7168 -1.7168 -3.9707 -2.58008 -6.22461 -2.58008s-4.50781 0.863281 -6.22461 2.58008
c-3.44238 3.44238 -3.44238 9.00684 0 12.4492zM119.035 59.0762c3.44238 3.43359 9.00684 3.44238 12.4492 0s3.44238 -9.00684 0 -12.4492l-6.22461 -6.22461c-1.7168 -1.7168 -3.9707 -2.58008 -6.22461 -2.58008s-4.50781 0.863281 -6.22461 2.58008
c-3.44238 3.44238 -3.44238 9.00684 0 12.4492zM392.965 59.0762l6.22461 -6.22461c3.44238 -3.44238 3.44238 -9.00684 0 -12.4492c-1.7168 -1.7168 -3.9707 -2.58008 -6.22461 -2.58008s-4.50781 0.863281 -6.22461 2.58008l-6.22461 6.22461
c-3.44238 3.44238 -3.44238 9.00684 0 12.4492s9.00684 3.44238 12.4492 0zM125.26 326.781l6.22461 -6.22461c3.44238 -3.44238 3.44238 -9.00684 0 -12.4492c-1.7168 -1.7168 -3.9707 -2.58008 -6.22461 -2.58008s-4.50781 0.863281 -6.22461 2.58008l-6.22461 6.22461
c-3.44238 3.44238 -3.44238 9.00684 0 12.4492s9.00684 3.44238 12.4492 0z" />
    <glyph glyph-name="uniF105" unicode="&#xf105;" 
d="M370.701 448c77.9131 0 141.299 -63.3857 141.296 -141.293v-229.411c0 -77.9072 -63.3828 -141.293 -141.296 -141.293h-229.411c-77.9072 0 -141.29 63.3828 -141.29 141.293v229.411c0 77.9072 63.3828 141.293 141.29 141.293h229.411zM466.573 77.2959
l-0.00292969 229.411c0 52.8594 -43.0078 95.8662 -95.8691 95.8662h-229.411c-52.8594 0 -95.8633 -43.0068 -95.8633 -95.8662v-229.411c0 -52.8623 43.0039 -95.8691 95.8633 -95.8662h229.414c52.8623 0 95.8691 43.0039 95.8691 95.8662zM255.998 323.924
c72.7471 0 131.929 -59.1816 131.929 -131.929c0 -72.7432 -59.1816 -131.922 -131.929 -131.922c-72.7461 0 -131.929 59.1787 -131.929 131.922c0 72.7471 59.1826 131.929 131.929 131.929zM255.998 105.503c47.6953 0 86.502 38.8008 86.502 86.4951
c0 47.6982 -38.8037 86.502 -86.502 86.502c-47.6973 0 -86.501 -38.8037 -86.501 -86.502c0 -47.6943 38.8066 -86.4951 86.501 -86.4951zM393.46 362.443c8.78223 0 17.3838 -3.54395 23.5615 -9.75195c6.20801 -6.17773 9.75195 -14.7793 9.75195 -23.5615
c0 -8.75195 -3.54395 -17.3525 -9.75195 -23.5615c-6.20801 -6.17773 -14.7793 -9.75098 -23.5615 -9.75098c-8.75195 0 -17.3525 3.57324 -23.5312 9.75098c-6.20801 6.20898 -9.78125 14.8066 -9.78125 23.5615c0 8.78223 3.57031 17.3838 9.78125 23.5615
c6.18164 6.20801 14.7793 9.75195 23.5312 9.75195z" />
    <glyph glyph-name="uniF109" unicode="&#xf109;" 
d="M476.296 328.278c19.6875 0 35.7051 -16.0166 35.7031 -35.7041v-264.364c0 -19.6875 -16.0156 -35.7061 -35.7051 -35.7061h-440.589c-19.6875 0 -35.7051 16.0176 -35.7051 35.7061v264.364c0 19.6875 16.0176 35.7041 35.7051 35.7041h127.482v22.252
c0 22.5898 18.3779 40.9668 40.9668 40.9668h103.692c22.5889 0 40.9668 -18.3779 40.9668 -40.9668v-22.252h127.482zM183.586 350.53v-22.252h144.831v22.252c0 11.3418 -9.22852 20.5684 -20.5693 20.5684h-103.692c-11.3418 0 -20.5693 -9.22754 -20.5693 -20.5684z
M476.296 12.9023c8.43945 0 15.3066 6.86719 15.3057 15.3076h-0.000976562v264.364c0 8.44043 -6.86621 15.3066 -15.3066 15.3066h-440.589c-8.44043 0 -15.3066 -6.86719 -15.3066 -15.3066v-264.364c0 -8.44141 6.86621 -15.3076 15.3066 -15.3076h440.591z
M435.507 245.443c5.63281 0 10.1992 -4.56641 10.1992 -10.1992c0 -5.63184 -4.56641 -10.1982 -10.1992 -10.1982h-359.013c-5.63281 0 -10.1992 4.56641 -10.1992 10.1982c0 5.63281 4.56641 10.1992 10.1992 10.1992h359.013zM435.507 172.01
c5.63281 0 10.1992 -4.56738 10.1992 -10.1992s-4.56641 -10.1992 -10.1992 -10.1992h-359.013c-5.63281 0 -10.1992 4.56738 -10.1992 10.1992s4.56641 10.1992 10.1992 10.1992h359.013zM435.507 98.5752c5.63281 0 10.1992 -4.56641 10.1992 -10.1992
c0 -5.63184 -4.56641 -10.1982 -10.1992 -10.1982h-5.09961c-5.63379 0 -10.1992 4.56641 -10.1992 10.1982c0 5.63281 4.56543 10.1992 10.1992 10.1992h5.09961zM390.631 98.5752c5.63281 0 10.1992 -4.56641 10.1992 -10.1992
c0 -5.63184 -4.56641 -10.1982 -10.1992 -10.1982h-314.137c-5.63281 0 -10.1992 4.56641 -10.1992 10.1982c0 5.63281 4.56641 10.1992 10.1992 10.1992h314.137z" />
    <glyph glyph-name="uniF104" unicode="&#xf104;" 
d="M401.066 413.866c14.1143 0 25.6006 -11.4854 25.6006 -25.5996v-426.667c0 -14.1133 -11.4863 -25.5996 -25.6006 -25.5996h-290.133c-14.1143 0 -25.6006 11.4863 -25.6006 25.5996v426.667c0 14.1143 11.4863 25.5996 25.6006 25.5996h105.659l-10.8965 21.7773
c-2.1084 4.21582 -0.401367 9.34375 3.81445 11.4521c4.23242 2.09082 9.34375 0.400391 11.4512 -3.81445l14.7119 -29.415h41.6592l23.04 30.7119c2.8252 3.77148 8.16699 4.53125 11.9473 1.70703c3.77148 -2.8252 4.53906 -8.17578 1.70605 -11.9385l-15.3594 -20.4805
h102.399zM409.6 -38.4004v426.667c0 4.70996 -3.82227 8.5332 -8.5332 8.5332h-156.859l4.65918 -9.30957c2.30371 0.495117 4.68457 0.776367 7.13379 0.776367c18.8242 0 34.1338 -15.3086 34.1338 -34.1328c0 -18.8252 -15.3096 -34.1338 -34.1338 -34.1338
s-34.1338 15.3086 -34.1338 34.1338c0 10.248 4.62598 19.3359 11.7939 25.5996l-8.53418 17.0664h-114.192c-4.70215 0 -8.5332 -3.82324 -8.5332 -8.5332v-426.667c0 -4.70996 3.83105 -8.5332 8.5332 -8.5332h290.133c4.71094 0 8.5332 3.82324 8.5332 8.5332z
M241.767 363.52c-1.7832 -2.69629 -2.83301 -5.92188 -2.83301 -9.38574c0 -9.41309 7.6543 -17.0674 17.0664 -17.0674s17.0664 7.6543 17.0664 17.0674c0 9.04492 -7.09961 16.4004 -16.0078 16.9551l6.57031 -13.1416
c2.10742 -4.21484 0.401367 -9.34375 -3.81445 -11.4512c-1.2207 -0.605469 -2.52637 -0.896484 -3.80566 -0.896484c-3.13184 0 -6.14453 1.72461 -7.64648 4.71973zM256 251.733c61.167 0 110.934 -49.7666 110.934 -110.934
c0 -20.7871 -5.85449 -40.1836 -15.8379 -56.8232l0.657227 -0.22168l-7.12598 -9.47168c-0.178711 -0.248047 -0.400391 -0.453125 -0.588867 -0.700195c-2.20117 -2.87598 -4.53125 -5.63184 -6.99707 -8.27734
c-0.452148 -0.477539 -0.878906 -0.990234 -1.33105 -1.45898c-2.61133 -2.69727 -5.3252 -5.27344 -8.19238 -7.69727c-0.306641 -0.264648 -0.588867 -0.563477 -0.895508 -0.819336c-2.92676 -2.42383 -5.98242 -4.67578 -9.14746 -6.79297
c-1.62207 -1.08301 -3.31152 -2.03027 -4.98438 -3.0293c-1.62109 -0.963867 -3.2334 -1.94531 -4.91504 -2.83301c-1.87695 -0.989258 -3.79688 -1.88574 -5.73438 -2.76465c-1.62988 -0.750977 -3.26758 -1.45898 -4.93164 -2.125
c-1.92871 -0.767578 -3.87402 -1.49316 -5.85449 -2.15039c-1.86035 -0.62207 -3.75488 -1.16016 -5.66602 -1.68945c-1.84277 -0.50293 -3.67773 -1.01562 -5.54688 -1.4248c-2.34668 -0.520508 -4.73535 -0.887695 -7.13379 -1.25488
c-1.51855 -0.229492 -3.02051 -0.52832 -4.55664 -0.699219c-3.99316 -0.435547 -8.03809 -0.700195 -12.1514 -0.700195s-8.1582 0.264648 -12.1514 0.691406c-1.53613 0.170898 -3.03809 0.469727 -4.55664 0.700195
c-2.39844 0.366211 -4.78711 0.733398 -7.13379 1.25391c-1.87793 0.401367 -3.7041 0.921875 -5.54688 1.4248c-1.90332 0.529297 -3.79785 1.06738 -5.66602 1.69043c-1.97949 0.65625 -3.91699 1.38184 -5.85449 2.15039
c-1.67188 0.665039 -3.30176 1.38184 -4.93164 2.12402c-1.9375 0.878906 -3.85742 1.77539 -5.73438 2.76562c-1.67285 0.886719 -3.28516 1.86035 -4.91504 2.83301c-1.67285 0.998047 -3.3623 1.94531 -4.98438 3.0293
c-3.16504 2.11621 -6.2207 4.37695 -9.14746 6.79199c-0.306641 0.264648 -0.588867 0.554688 -0.895508 0.819336c-2.86719 2.42383 -5.58984 5.00098 -8.19238 7.69727c-0.460938 0.46875 -0.887695 0.972656 -1.33105 1.45898
c-2.46582 2.64551 -4.7959 5.40137 -6.99707 8.27734c-0.188477 0.248047 -0.401367 0.452148 -0.588867 0.700195l-7.12598 9.47168l0.657227 0.22168c-9.9834 16.6484 -15.8379 36.0449 -15.8379 56.832c0 61.167 49.7666 110.934 110.934 110.934zM230.187 101.453
l8.23438 -9.63477l-49.5439 -16.5117c1.87695 -1.9375 3.84863 -3.72949 5.8623 -5.47852c0.40918 -0.358398 0.785156 -0.742188 1.20312 -1.0918c1.33984 -1.12695 2.76465 -2.125 4.16406 -3.1748c1.14355 -0.853516 2.24414 -1.75781 3.42188 -2.55957
c0.136719 -0.09375 0.282227 -0.162109 0.417969 -0.256836c14.9082 -9.97461 32.8115 -15.8115 52.0537 -15.8115s37.1455 5.83691 52.0361 15.8037c0.136719 0.09375 0.282227 0.162109 0.417969 0.255859c1.18652 0.801758 2.27832 1.70605 3.42188 2.55957
c1.39941 1.04102 2.8252 2.04785 4.16504 3.1748c0.417969 0.349609 0.792969 0.733398 1.20312 1.0918c2.01367 1.75 3.98438 3.54199 5.8623 5.47852l-49.5449 16.5127l8.24316 9.64258c5.45312 6.36523 8.3291 13.9941 8.3291 22.0498v34.3633
c0 18.8252 -15.3096 34.1338 -34.1338 34.1338s-34.1338 -15.3086 -34.1338 -34.1338v-34.3633c0 -8.06445 2.87598 -15.6846 8.32031 -22.0498zM334.507 89.498c9.67676 14.7617 15.3604 32.3662 15.3604 51.3018c0 51.7549 -42.1123 93.8672 -93.8672 93.8672
s-93.8662 -42.1123 -93.8662 -93.8672c0 -18.9355 5.67383 -36.54 15.3594 -51.3018l32.9385 10.9736c-3.67773 7.15039 -5.63184 15.0352 -5.63184 23.0312v34.3633c0 28.2373 22.9639 51.2002 51.2002 51.2002s51.2002 -22.9629 51.2002 -51.2002v-34.3633
c0 -7.9873 -1.9541 -15.8809 -5.63184 -23.0312zM377.174 285.866c0 5.68945 2.84439 8.53418 8.5332 8.53418s8.5332 -2.84473 8.5332 -8.53418c0 -5.68881 -2.84439 -8.5332 -8.5332 -8.5332s-8.5332 2.84439 -8.5332 8.5332zM215.04 285.866
c0 5.68945 2.84441 8.53418 8.5332 8.53418s8.5332 -2.84473 8.5332 -8.53418c0 -5.68881 -2.84441 -8.5332 -8.5332 -8.5332s-8.5332 2.84439 -8.5332 8.5332zM150.187 285.866c0 5.68945 2.84441 8.53418 8.5332 8.53418s8.5332 -2.84473 8.5332 -8.53418
c0 -5.68881 -2.84441 -8.5332 -8.5332 -8.5332s-8.5332 2.84439 -8.5332 8.5332zM117.76 285.866c0 5.68945 2.8444 8.53418 8.5332 8.53418c5.68945 0 8.53418 -2.84473 8.53418 -8.53418c0 -5.68881 -2.84473 -8.5332 -8.53418 -8.5332
c-5.6888 0 -8.5332 2.84439 -8.5332 8.5332zM182.613 285.866c0 5.68945 2.84441 8.53418 8.5332 8.53418s8.5332 -2.84473 8.5332 -8.53418c0 -5.68881 -2.84441 -8.5332 -8.5332 -8.5332s-8.5332 2.84439 -8.5332 8.5332zM247.467 285.866
c0 5.68945 2.84441 8.53418 8.5332 8.53418c5.68881 0 8.5332 -2.84473 8.5332 -8.53418c0 -5.68881 -2.84439 -8.5332 -8.5332 -8.5332c-5.6888 0 -8.5332 2.84439 -8.5332 8.5332zM344.747 285.866c0 5.68945 2.84439 8.53418 8.5332 8.53418
s8.5332 -2.84473 8.5332 -8.53418c0 -5.68881 -2.84439 -8.5332 -8.5332 -8.5332s-8.5332 2.84439 -8.5332 8.5332zM312.32 285.866c0 5.68945 2.84439 8.53418 8.5332 8.53418s8.5332 -2.84473 8.5332 -8.53418c0 -5.68881 -2.84439 -8.5332 -8.5332 -8.5332
s-8.5332 2.84439 -8.5332 8.5332zM279.894 285.866c0 5.68945 2.84439 8.53418 8.5332 8.53418s8.5332 -2.84473 8.5332 -8.53418c0 -5.68881 -2.84439 -8.5332 -8.5332 -8.5332s-8.5332 2.84439 -8.5332 8.5332zM117.76 -12.7998c0 5.6888 2.8444 8.5332 8.5332 8.5332
c5.68945 0 8.53418 -2.8444 8.53418 -8.5332c0 -5.6888 -2.84473 -8.5332 -8.53418 -8.5332c-5.6888 0 -8.5332 2.8444 -8.5332 8.5332zM182.613 -12.7998c0 5.6888 2.84441 8.5332 8.5332 8.5332s8.5332 -2.8444 8.5332 -8.5332
c0 -5.6888 -2.84441 -8.5332 -8.5332 -8.5332s-8.5332 2.8444 -8.5332 8.5332zM344.747 -12.7998c0 5.6888 2.84439 8.5332 8.5332 8.5332s8.5332 -2.8444 8.5332 -8.5332c0 -5.6888 -2.84439 -8.5332 -8.5332 -8.5332s-8.5332 2.8444 -8.5332 8.5332zM312.32 -12.7998
c0 5.6888 2.84439 8.5332 8.5332 8.5332s8.5332 -2.8444 8.5332 -8.5332c0 -5.6888 -2.84439 -8.5332 -8.5332 -8.5332s-8.5332 2.8444 -8.5332 8.5332zM377.174 -12.7998c0 5.6888 2.84439 8.5332 8.5332 8.5332s8.5332 -2.8444 8.5332 -8.5332
c0 -5.6888 -2.84439 -8.5332 -8.5332 -8.5332s-8.5332 2.8444 -8.5332 8.5332zM247.467 -12.7998c0 5.6888 2.84441 8.5332 8.5332 8.5332c5.68881 0 8.5332 -2.8444 8.5332 -8.5332c0 -5.6888 -2.84439 -8.5332 -8.5332 -8.5332c-5.6888 0 -8.5332 2.8444 -8.5332 8.5332z
M215.04 -12.7998c0 5.6888 2.84441 8.5332 8.5332 8.5332s8.5332 -2.8444 8.5332 -8.5332c0 -5.6888 -2.84441 -8.5332 -8.5332 -8.5332s-8.5332 2.8444 -8.5332 8.5332zM279.894 -12.7998c0 5.6888 2.84439 8.5332 8.5332 8.5332s8.5332 -2.8444 8.5332 -8.5332
c0 -5.6888 -2.84439 -8.5332 -8.5332 -8.5332s-8.5332 2.8444 -8.5332 8.5332zM150.187 -12.7998c0 5.6888 2.84441 8.5332 8.5332 8.5332s8.5332 -2.8444 8.5332 -8.5332c0 -5.6888 -2.84441 -8.5332 -8.5332 -8.5332s-8.5332 2.8444 -8.5332 8.5332z" />
    <glyph glyph-name="uniF106" unicode="&#xf106;" 
d="M501.8 357.545c5.63184 0 10.1992 -4.56543 10.2002 -10.1992v-268.727c0 -28.7646 -23.4014 -52.165 -52.165 -52.165h-407.67c-28.7646 0 -52.165 23.4004 -52.165 52.165v268.727c0 5.63379 4.56738 10.1992 10.1992 10.1992h491.601zM491.601 78.6201v258.527
h-453.722l218.128 -178.57l170.847 139.552c4.3623 3.56543 10.7852 2.91699 14.3506 -1.44531c3.56348 -4.36328 2.91504 -10.7871 -1.44727 -14.3516l-177.306 -144.828c-1.87793 -1.5332 -4.16504 -2.30078 -6.45215 -2.30078
c-2.29004 0 -4.58008 0.769531 -6.46094 2.30762l-229.139 187.583v-246.474c0 -17.5156 14.25 -31.7666 31.7656 -31.7666h407.67c17.5156 0 31.7656 14.25 31.7656 31.7666zM469.922 320.142c3.56348 -4.36328 2.91504 -10.7881 -1.44824 -14.3516l-3.05957 -2.49902
c-1.89258 -1.5459 -4.17578 -2.2998 -6.44531 -2.2998c-2.95703 0 -5.88965 1.2793 -7.9043 3.74707c-3.56348 4.36328 -2.91504 10.7871 1.44727 14.3506l3.06055 2.49902c4.35938 3.56445 10.7871 2.91602 14.3496 -1.44629z" />
    <glyph glyph-name="uniF107" unicode="&#xf107;" 
d="M450.619 195.423c13.0859 -26.4541 13.0859 -58.041 -0.000976562 -84.499c-1.47461 -2.97949 -4.50977 -4.86621 -7.83594 -4.86621h-215.379c-1.73535 0 -3.42969 0.517578 -4.86914 1.48242l-57.2344 38.3721c-2.4209 1.62305 -3.87305 4.34668 -3.87305 7.26074
s1.45215 5.63672 3.87305 7.26074l57.2344 38.3721c1.43945 0.966797 3.13477 1.48145 4.86914 1.4834h215.38c3.3252 0 6.36133 -1.88574 7.83594 -4.86621zM196.99 145.717c0.668945 2.4082 1.02734 4.91016 1.02734 7.45898
c0 2.54688 -0.358398 5.04688 -1.02734 7.45508l-11.1221 -7.45605zM222.976 128.294c4.76953 16.21 4.76953 33.5488 0.00292969 49.7588l-11.0117 -7.38281c2.31055 -5.50391 3.53613 -11.4248 3.53613 -17.4951c0 -6.07422 -1.22656 -11.9951 -3.53809 -17.498z
M392.998 123.544c2.75684 6.71387 4.54785 13.751 5.34473 20.8877h-154.652c-0.582031 -7.05078 -1.87012 -14.0537 -3.86621 -20.8877h153.174zM243.69 161.916h154.652c-0.796875 7.13672 -2.58984 14.1738 -5.34473 20.8877h-153.173
c1.99414 -6.83496 3.28223 -13.8359 3.86523 -20.8877zM437.145 123.544c7.75293 18.8887 7.75293 40.3711 0 59.2598h-25.5186c6.23633 -19.1904 6.23633 -40.0684 0 -59.2598h25.5186zM503.258 296.292c4.82812 0 8.74219 -3.91406 8.74121 -8.74219v-268.75
c0 -4.82812 -3.91309 -8.74219 -8.74219 -8.74219h-440.554c-4.8291 0 -8.74219 3.91406 -8.74219 8.74219v173.609l-52.79 91.4336c-1.16016 2.00684 -1.47363 4.39453 -0.873047 6.63281c0.601562 2.23926 2.06543 4.14844 4.07324 5.30859l120.18 69.3848
c4.17969 2.41406 9.5293 0.981445 11.9424 -3.2002l36.3408 -62.9434v28.7998c0 25.4287 20.6895 46.1191 46.1191 46.1191h112.57c25.4307 0 46.1182 -20.6895 46.1182 -46.1191v-31.5332h125.616zM360.158 327.824c0 13.6602 -9.61719 25.1094 -22.4355 27.9502
c5.03418 -7.05859 8.00879 -15.6846 8.00879 -24.9961v-34.4873h14.4268v31.5332zM222.229 327.825v-31.5342h106.019v34.4873c0 14.1611 -11.5215 25.6807 -25.6807 25.6807h-51.7031c-15.7881 0 -28.6348 -12.8447 -28.6348 -28.6338zM190.317 327.824v-31.5332h14.4277
v31.5332c0 10.6514 3.63965 20.4648 9.72852 28.2822c-13.6689 -2.15625 -24.1562 -14.0166 -24.1562 -28.2822zM81.9434 27.541v116.404l-10.4971 18.1807v-134.585h10.4971zM86.377 295.157c1.41211 0.797852 2.98535 1.16992 4.55273 1.13184l63.291 0.00292969
l-28.5 49.3652l-105.039 -60.6436l61.2607 -106.102v108.638c0 3.15039 1.69336 6.05664 4.43457 7.60742zM109.925 27.541l-0.000976562 251.263h-10.4971v-251.263h10.498zM127.408 27.541h32.5693c-3.44043 16.2822 -16.2891 29.1289 -32.5693 32.5713v-32.5713z
M494.516 27.541v32.5713c-16.2793 -3.44238 -29.127 -16.29 -32.5684 -32.5713h32.5684zM494.516 77.8652v200.942h-367.106v-200.942c25.9395 -3.82227 46.5 -24.3828 50.3232 -50.3242h266.461c3.82129 25.9414 24.3818 46.501 50.3223 50.3242z" />
    <glyph glyph-name="uniF10B" unicode="&#xf10b;" 
d="M404.646 76.3877h107.354v-49.5479h-24.7744v-90.8379h-16.5166v90.8379h-16.5166v-90.8379h-16.5156v90.8379h-363.354v-90.8379h-16.5156v90.8379h-16.5166v-90.8379h-16.5166v90.8379h-24.7744v49.5479h33.0312v8.25781c0 13.6582 10.6367 24.7744 24.2959 24.7744
h28.0117l-68.2939 128.181c-10.1172 5.64844 -17.0449 16.334 -17.0449 28.7217c0 16.4502 12.1221 30.0186 27.8975 32.5029l54.2627 77.5273l-11.3711 15.1621l61.3662 51.1406l27.9199 -27.9199c1.52832 0.107422 3.05566 0.230469 4.6084 0.230469
c23.4678 0 45.376 -12.6689 57.1777 -33.0576l3.36914 -5.83887l-20.4307 -18.1582c0.702148 -2.99707 1.17285 -6.01074 1.17285 -9.00879c0 -22.7686 -18.5234 -41.291 -41.291 -41.291c-4.64941 0 -9.22461 0.859375 -13.6914 2.47754l-20.3887 -18.125l-5.39355 4.03027
c-13.2539 9.9082 -21.9912 23.9316 -25.1787 39.6289l-34.5674 -63.3701c0.355469 -1.93164 0.603516 -3.89844 0.603516 -5.92969c0 -6.97754 -2.20605 -13.4365 -5.91309 -18.7793l84.8496 -138.124h27.9375c13.6582 0 25.2529 -11.1162 25.2529 -24.7744v-8.25781
h140.386v16.5156h-82.5801c-13.6582 0 -24.7744 11.1162 -24.7744 24.7744v132.128c0 13.6582 11.1162 24.7744 24.7744 24.7744h231.224c13.6592 0 24.7744 -11.1162 24.7744 -24.7744v-132.128c0 -13.6582 -11.1152 -24.7744 -24.7744 -24.7744v0h-82.5762v-16.5156z
M247.74 249.806v-107.354h247.74v107.354c0 4.55078 -3.70801 8.25781 -8.25879 8.25781h-231.224c-4.5498 0 -8.25781 -3.70703 -8.25781 -8.25781zM338.578 109.42h66.0635h82.5801c4.55078 0 8.25879 3.70801 8.25879 8.25781v8.25879h-247.74v-8.25879
c0 -4.5498 3.70801 -8.25781 8.25781 -8.25781h82.5801zM388.127 92.9033h-33.0322v-16.5156h33.0322v16.5156zM166.903 324.228c10.916 0.973633 19.8174 9.05762 22.0234 19.5791zM164.69 398.449c-27.3262 0 -49.5479 -22.2217 -49.5479 -49.5469
c0 -13.4941 5.3584 -26.0635 14.8965 -35.3447l73.8105 65.6113c-9.32422 12.0312 -23.7998 19.2822 -39.1592 19.2803zM131.137 420.309l-37.7217 -31.4395l10.5127 -14.0293c7.00293 16.3271 20.4131 29.2266 37.0283 35.6494zM92.5791 362.454l-46.1865 -65.9814
c3.6748 -1.63574 7.00293 -3.88184 9.82812 -6.67383l38.251 70.1357zM16.5166 266.322c0 -9.11035 7.40625 -16.5166 16.5156 -16.5166c9.11035 0 16.5166 7.4082 16.5166 16.5166c0 9.10938 -7.4082 16.5156 -16.5166 16.5156
c-9.10938 0 -16.5156 -7.4082 -16.5156 -16.5156zM37.7969 233.77l66.2539 -124.35h21.5703l-78.2031 127.307c-2.99023 -1.46191 -6.20996 -2.46094 -9.62109 -2.95703zM57.3271 92.9033c-4.55078 0 -7.78027 -3.70703 -7.78027 -8.25781h0.00195312v-8.25781h132.128
v8.25781c0 4.55078 -4.18652 8.25781 -8.7373 8.25781h-115.612zM495.48 43.3545v16.5166h-90.8369h-66.0635h-140.866h-165.16h-16.0371v-16.5166h8.25781h49.5479h363.353h49.5469h8.25879zM239.481 291.097v16.5156h264.257v-16.5156h-264.257zM355.095 447.998v-132.127
h-66.0635v132.127h66.0635zM338.578 332.386v33.0322h-33.0322v-33.0322h33.0322zM338.578 381.935v49.5469h-33.0322v-49.5469h33.0322zM313.804 348.902c0 5.50522 2.75259 8.25781 8.25781 8.25781c5.50586 0 8.25879 -2.75259 8.25879 -8.25781
c0 -5.50586 -2.75293 -8.25879 -8.25879 -8.25879c-5.50522 0 -8.25781 2.75293 -8.25781 8.25879zM429.416 447.998v-132.127h-66.0635v132.127h66.0635zM379.867 431.481v-49.5469h33.0332v49.5469h-33.0332zM412.902 332.386v33.0322h-33.0332v-33.0322h33.0332z
M388.126 348.902c0 5.50522 2.75259 8.25781 8.25781 8.25781s8.25781 -2.75259 8.25781 -8.25781c0 -5.50586 -2.75259 -8.25879 -8.25781 -8.25879s-8.25781 2.75293 -8.25781 8.25879zM503.738 447.998v-132.127h-66.0635v132.127h66.0635zM454.189 431.481v-49.5469
h33.0322v49.5469h-33.0322zM487.224 332.386v33.0322h-33.0322v-33.0322h33.0322zM462.449 348.902c0 5.50522 2.75259 8.25781 8.25781 8.25781c5.50586 0 8.25879 -2.75259 8.25879 -8.25781c0 -5.50586 -2.75293 -8.25879 -8.25879 -8.25879
c-5.50522 0 -8.25781 2.75293 -8.25781 8.25879z" />
    <glyph glyph-name="uniF102" unicode="&#xf102;" 
d="M383.979 447.894c5.75781 -0.0107422 10.4238 -4.68164 10.4238 -10.4404v-78.1602c0 -5.7627 -4.6709 -10.4395 -10.4346 -10.4395l-44.7256 -0.015625c-30.835 0 -36.4756 -12.0166 -36.4756 -35.6875v-49.249h78.0801c2.76953 0 5.43262 -1.10254 7.3877 -3.0625
s3.05762 -4.6123 3.05762 -7.38184l-0.0322266 -84.1748c0 -5.76855 -4.6709 -10.4395 -10.4395 -10.4395h-78.0537v-212.397c0 -5.76367 -4.67188 -10.4404 -10.4404 -10.4404h-87.0977c-5.76855 0 -10.4404 4.67188 -10.4404 10.4404v212.397h-66.7559
c-5.76367 0 -10.4404 4.6709 -10.4404 10.4395v84.1748c0 5.76855 4.67188 10.4443 10.4404 10.4443h66.7559v58.0957c0 76.5469 48.2051 126.003 122.796 126.003z" />
    <glyph glyph-name="uniF101" unicode="&#xf101;" 
d="M378.694 408.275h133.306v-114.758v-353.104h-512v353.104v114.758h133.306c4.10449 20.1182 21.9365 35.3105 43.2461 35.3105c24.3379 0 44.1377 -19.7998 44.1377 -44.1377s-19.7998 -44.1377 -44.1377 -44.1377c-4.88184 0 -8.82715 3.94531 -8.82715 8.82715
s3.94531 8.82812 8.82715 8.82812c14.6006 0 26.4824 11.8818 26.4824 26.4824s-11.8818 26.4824 -26.4824 26.4824c-11.4932 0 -21.2041 -7.39746 -24.8584 -17.6553h16.0312c4.88086 0 8.82715 -3.94531 8.82715 -8.82715s-3.94629 -8.82715 -8.82715 -8.82715h-26.4834
h-123.586v-79.4482h476.689v79.4482h-115.65c-4.10449 -20.1182 -21.9365 -35.3105 -43.2461 -35.3105c-4.88184 0 -8.82715 3.94531 -8.82715 8.82715s3.94531 8.82812 8.82715 8.82812c14.6006 0 26.4824 11.8818 26.4824 26.4824s-11.8818 26.4824 -26.4824 26.4824
c-4.88184 0 -8.82715 3.94629 -8.82715 8.82812s3.94531 8.82715 8.82715 8.82715c21.3184 0 39.1416 -15.1924 43.2461 -35.3105zM494.345 -41.9307v335.448h-476.689v-335.448h476.689zM229.518 425.931c-4.88184 0 -8.82812 3.94629 -8.82812 8.82812
s3.94629 8.82715 8.82812 8.82715c24.3369 0 44.1377 -19.7998 44.1377 -44.1377s-19.8008 -44.1377 -44.1377 -44.1377c-4.88184 0 -8.82812 3.94531 -8.82812 8.82715s3.94629 8.82812 8.82812 8.82812c14.6006 0 26.4824 11.8818 26.4824 26.4824
s-11.8818 26.4824 -26.4824 26.4824zM282.482 425.931c-4.88086 0 -8.82715 3.94629 -8.82715 8.82812s3.94629 8.82715 8.82715 8.82715c24.3379 0 44.1387 -19.7998 44.1387 -44.1377s-19.8008 -44.1377 -44.1387 -44.1377c-4.88086 0 -8.82715 3.94531 -8.82715 8.82715
s3.94629 8.82812 8.82715 8.82812c14.6016 0 26.4834 11.8818 26.4834 26.4824s-11.8818 26.4824 -26.4834 26.4824zM185.379 231.725c0 5.88477 2.9427 8.82715 8.82812 8.82715c5.88477 0 8.82715 -2.94238 8.82715 -8.82715
c0 -5.88542 -2.94238 -8.82812 -8.82715 -8.82812c-5.88542 0 -8.82812 2.9427 -8.82812 8.82812zM247.173 231.725c0 5.88477 2.94238 8.82715 8.82715 8.82715s8.82715 -2.94238 8.82715 -8.82715c0 -5.88542 -2.94238 -8.82812 -8.82715 -8.82812
s-8.82715 2.9427 -8.82715 8.82812zM308.966 231.725c0 5.88477 2.94238 8.82715 8.82715 8.82715c5.88541 0 8.82812 -2.94238 8.82812 -8.82715c0 -5.88542 -2.94272 -8.82812 -8.82812 -8.82812c-5.88477 0 -8.82715 2.9427 -8.82715 8.82812zM370.759 231.725
c0 5.88477 2.94238 8.82715 8.82715 8.82715c5.88541 0 8.82812 -2.94238 8.82812 -8.82715c0 -5.88542 -2.94272 -8.82812 -8.82812 -8.82812c-5.88477 0 -8.82715 2.9427 -8.82715 8.82812zM432.552 231.725c0 5.88477 2.94238 8.82715 8.82715 8.82715
c5.88541 0 8.82812 -2.94238 8.82812 -8.82715c0 -5.88542 -2.94272 -8.82812 -8.82812 -8.82812c-5.88477 0 -8.82715 2.9427 -8.82715 8.82812zM61.793 161.104c3.8147e-06 5.88477 2.94271 8.82715 8.82812 8.82715c5.88477 0 8.82715 -2.94238 8.82715 -8.82715
c0 -5.88542 -2.94238 -8.82812 -8.82715 -8.82812c-5.88541 0 -8.82812 2.9427 -8.82812 8.82812zM123.586 161.104c0 5.88477 2.94271 8.82715 8.82812 8.82715c5.88477 0 8.82715 -2.94238 8.82715 -8.82715c0 -5.88542 -2.94238 -8.82812 -8.82715 -8.82812
c-5.88541 0 -8.82812 2.9427 -8.82812 8.82812zM185.379 161.104c0 5.88477 2.9427 8.82715 8.82812 8.82715c5.88477 0 8.82715 -2.94238 8.82715 -8.82715c0 -5.88542 -2.94238 -8.82812 -8.82715 -8.82812c-5.88542 0 -8.82812 2.9427 -8.82812 8.82812zM247.173 161.104
c0 5.88477 2.94238 8.82715 8.82715 8.82715s8.82715 -2.94238 8.82715 -8.82715c0 -5.88542 -2.94238 -8.82812 -8.82715 -8.82812s-8.82715 2.9427 -8.82715 8.82812zM308.966 161.104c0 5.88477 2.94238 8.82715 8.82715 8.82715
c5.88541 0 8.82812 -2.94238 8.82812 -8.82715c0 -5.88542 -2.94272 -8.82812 -8.82812 -8.82812c-5.88477 0 -8.82715 2.9427 -8.82715 8.82812zM370.759 161.104c0 5.88477 2.94238 8.82715 8.82715 8.82715c5.88541 0 8.82812 -2.94238 8.82812 -8.82715
c0 -5.88542 -2.94272 -8.82812 -8.82812 -8.82812c-5.88477 0 -8.82715 2.9427 -8.82715 8.82812zM432.552 161.104c0 5.88477 2.94238 8.82715 8.82715 8.82715c5.88541 0 8.82812 -2.94238 8.82812 -8.82715c0 -5.88542 -2.94272 -8.82812 -8.82812 -8.82812
c-5.88477 0 -8.82715 2.9427 -8.82715 8.82812zM61.793 99.3105c3.8147e-06 5.88477 2.94271 8.82715 8.82812 8.82715c5.88477 0 8.82715 -2.94238 8.82715 -8.82715c0 -5.88541 -2.94238 -8.82812 -8.82715 -8.82812c-5.88541 0 -8.82812 2.94271 -8.82812 8.82812z
M123.586 99.3105c0 5.88477 2.94271 8.82715 8.82812 8.82715c5.88477 0 8.82715 -2.94238 8.82715 -8.82715c0 -5.88541 -2.94238 -8.82812 -8.82715 -8.82812c-5.88541 0 -8.82812 2.94271 -8.82812 8.82812zM185.379 99.3105c0 5.88477 2.9427 8.82715 8.82812 8.82715
c5.88477 0 8.82715 -2.94238 8.82715 -8.82715c0 -5.88541 -2.94238 -8.82812 -8.82715 -8.82812c-5.88542 0 -8.82812 2.94271 -8.82812 8.82812zM247.173 99.3105c0 5.88477 2.94238 8.82715 8.82715 8.82715s8.82715 -2.94238 8.82715 -8.82715
c0 -5.88541 -2.94238 -8.82812 -8.82715 -8.82812s-8.82715 2.94271 -8.82715 8.82812zM308.966 99.3105c0 5.88477 2.94238 8.82715 8.82715 8.82715c5.88541 0 8.82812 -2.94238 8.82812 -8.82715c0 -5.88541 -2.94272 -8.82812 -8.82812 -8.82812
c-5.88477 0 -8.82715 2.94271 -8.82715 8.82812zM370.759 99.3105c0 5.88477 2.94238 8.82715 8.82715 8.82715c5.88541 0 8.82812 -2.94238 8.82812 -8.82715c0 -5.88541 -2.94272 -8.82812 -8.82812 -8.82812c-5.88477 0 -8.82715 2.94271 -8.82715 8.82812z
M432.552 99.3105c0 5.88477 2.94238 8.82715 8.82715 8.82715c5.88541 0 8.82812 -2.94238 8.82812 -8.82715c0 -5.88541 -2.94272 -8.82812 -8.82812 -8.82812c-5.88477 0 -8.82715 2.94271 -8.82715 8.82812zM61.793 28.6895
c3.8147e-06 5.88542 2.94271 8.82812 8.82812 8.82812c5.88477 0 8.82715 -2.94271 8.82715 -8.82812c0 -5.88477 -2.94238 -8.82715 -8.82715 -8.82715c-5.88541 0 -8.82812 2.94238 -8.82812 8.82715zM123.586 28.6895c0 5.88542 2.94271 8.82812 8.82812 8.82812
c5.88477 0 8.82715 -2.94271 8.82715 -8.82812c0 -5.88477 -2.94238 -8.82715 -8.82715 -8.82715c-5.88541 0 -8.82812 2.94238 -8.82812 8.82715zM185.379 28.6895c0 5.88542 2.9427 8.82812 8.82812 8.82812c5.88477 0 8.82715 -2.94271 8.82715 -8.82812
c0 -5.88477 -2.94238 -8.82715 -8.82715 -8.82715c-5.88542 0 -8.82812 2.94238 -8.82812 8.82715zM247.173 28.6895c0 5.88542 2.94238 8.82812 8.82715 8.82812s8.82715 -2.94271 8.82715 -8.82812c0 -5.88477 -2.94238 -8.82715 -8.82715 -8.82715
s-8.82715 2.94238 -8.82715 8.82715zM308.966 28.6895c0 5.88542 2.94238 8.82812 8.82715 8.82812c5.88541 0 8.82812 -2.94271 8.82812 -8.82812c0 -5.88477 -2.94272 -8.82715 -8.82812 -8.82715c-5.88477 0 -8.82715 2.94238 -8.82715 8.82715z" />
  </font>
</defs></svg>
